{
	"groups": [
		{
			"keys": "egret_icon_png,description_json,gameEui_json,BaseRect_png,congratulations_mp3,laydoen_mp3,coins_mp3,windturbine_mp3,game_over_mp3,can_not_lay_down_wav",
			"name": "preload"
		}
	],
	"resources": [
		{
			"url": "assets/egret_icon.png",
			"type": "image",
			"name": "egret_icon_png"
		},
		{
			"name": "description_json",
			"type": "json",
			"url": "config/description.json"
		},
		{
			"name": "gameEui_json",
			"type": "json",
			"url": "gameEui.json"
		},
		{
			"name": "BaseRect_png",
			"type": "image",
			"url": "assets/Spr/BaseRect.png"
		},
		{
			"name": "congratulations_mp3",
			"type": "sound",
			"url": "assets/Audio/congratulations.mp3"
		},
		{
			"name": "laydoen_mp3",
			"type": "sound",
			"url": "assets/Audio/laydoen.mp3"
		},
		{
			"name": "coins_mp3",
			"type": "sound",
			"url": "assets/Audio/coins.mp3"
		},
		{
			"name": "windturbine_mp3",
			"type": "sound",
			"url": "assets/Audio/windturbine.mp3"
		},
		{
			"name": "game_over_mp3",
			"type": "sound",
			"url": "assets/Audio/game_over.mp3"
		},
		{
			"name": "can_not_lay_down_wav",
			"type": "sound",
			"url": "assets/Audio/can_not_lay_down.wav"
		}
	]
}